<?xml version="1.0" encoding="UTF-8" standalone="no"?>
<!-- Created with Inkscape (http://www.inkscape.org/) -->

<svg
   xmlns:dc="http://purl.org/dc/elements/1.1/"
   xmlns:cc="http://creativecommons.org/ns#"
   xmlns:rdf="http://www.w3.org/1999/02/22-rdf-syntax-ns#"
   xmlns:svg="http://www.w3.org/2000/svg"
   xmlns="http://www.w3.org/2000/svg"
   xmlns:sodipodi="http://sodipodi.sourceforge.net/DTD/sodipodi-0.dtd"
   xmlns:inkscape="http://www.inkscape.org/namespaces/inkscape"
   width="101.48579mm"
   height="71.483398mm"
   viewBox="0 0 101.48579 71.483399"
   version="1.1"
   id="svg8"
   inkscape:version="0.92.4 5da689c313, 2019-01-14"
   sodipodi:docname="store_na_1.svg"
   inkscape:export-filename="/home/glen/phd/aarhus19/store_na_1.png"
   inkscape:export-xdpi="96"
   inkscape:export-ydpi="96">
  <defs
     id="defs2" />
  <sodipodi:namedview
     id="base"
     pagecolor="#ffffff"
     bordercolor="#666666"
     borderopacity="1.0"
     inkscape:pageopacity="0.0"
     inkscape:pageshadow="2"
     inkscape:zoom="1.4142136"
     inkscape:cx="17.06278"
     inkscape:cy="129.73788"
     inkscape:document-units="mm"
     inkscape:current-layer="g4665"
     showgrid="false"
     inkscape:window-width="1918"
     inkscape:window-height="1042"
     inkscape:window-x="0"
     inkscape:window-y="37"
     inkscape:window-maximized="0"
     fit-margin-top="2"
     fit-margin-left="2"
     fit-margin-right="2"
     fit-margin-bottom="1" />
  <metadata
     id="metadata5">
    <rdf:RDF>
      <cc:Work
         rdf:about="">
        <dc:format>image/svg+xml</dc:format>
        <dc:type
           rdf:resource="http://purl.org/dc/dcmitype/StillImage" />
        <dc:title />
      </cc:Work>
    </rdf:RDF>
  </metadata>
  <g
     inkscape:label="Calque 1"
     inkscape:groupmode="layer"
     id="layer1"
     transform="translate(-0.46882596,-20.481097)">
    <path
       style="fill:#ff7f00;fill-opacity:1;stroke:none;stroke-width:0.26458332;stroke-opacity:1"
       id="path4647"
       d="m 44.551447,31.204282 c 0.179059,1.174641 0.33482,2.350505 0.546333,3.520098 0.222361,1.085083 0.470829,2.163281 0.654476,3.255995 0.167568,1.317683 0.252045,2.644499 0.347803,3.968927 0.139628,1.660779 0.284651,3.319632 0.358134,4.984988 0.07412,2.266603 0.04008,4.534926 0.02133,6.802141 -0.04626,3.160265 0.03868,6.319692 0.05264,9.479833 0.08685,2.55629 -0.133744,5.093798 -0.537734,7.614428 -0.358034,2.327436 -0.97118,4.60018 -1.545008,6.879881 -0.389062,1.550593 -0.684628,3.122329 -0.998773,4.689229 -0.102378,0.72804 -0.29523,1.435856 -0.467159,2.148673 -0.08675,0.474414 -0.212807,0.940078 -0.286403,1.416902 -0.130189,1.152027 -0.780058,0.684088 -2.546866,1.697606 0,0 2.233125,-1.710444 2.233125,-1.710444 v 0 c -0.77122,0.462264 -1.547727,0.915821 -2.313659,1.386795 -0.02635,0.01619 0.0711,0.0041 0.09062,-0.01984 0.02729,-0.03354 0.019,-0.08436 0.0285,-0.126544 0.08266,-0.485855 0.204777,-0.961166 0.301381,-1.443842 0.157282,-0.727157 0.416309,-1.430303 0.52114,-2.170314 0.358349,-1.585928 0.713888,-3.173023 1.104617,-4.7513 0.581046,-2.277941 1.222155,-4.544309 1.581451,-6.872264 0.407813,-2.516661 0.650142,-5.05129 0.607319,-7.604664 0.0283,-3.157961 -0.05942,-6.314252 -0.06546,-9.472221 -0.02572,-2.245082 -0.0469,-4.490725 -0.128374,-6.734625 -0.07712,-1.659363 -0.217942,-3.312617 -0.373327,-4.966263 -0.11966,-1.30892 -0.206049,-2.621804 -0.382733,-3.924827 -0.183668,-1.093655 -0.419491,-2.176507 -0.636899,-3.263614 -0.192919,-1.156891 -0.334267,-2.327791 -0.622412,-3.464954 0,0 2.455924,-1.319774 2.455924,-1.319774 z"
       inkscape:connector-curvature="0" />
    <path
       style="fill:#7f007f;fill-opacity:1;stroke:none;stroke-width:0.26458332;stroke-opacity:1"
       id="path4691"
       d="m 46.204835,89.610225 c 0.380757,-0.787519 0.670465,-1.616593 0.940369,-2.447557 0.349435,-1.025372 0.597265,-2.079916 0.931706,-3.110018 0.288576,-0.757584 0.503608,-1.536772 0.726025,-2.31507 0.181483,-0.61826 0.311362,-1.248312 0.426056,-1.881748 0.136027,-0.678067 0.234156,-1.3628 0.33945,-2.046087 0.139173,-0.978392 0.199723,-1.965759 0.294806,-2.949048 0.08379,-0.784866 0.137824,-1.572289 0.167942,-2.360912 -0.0094,-0.459054 0.02522,-0.912254 0.09078,-1.366207 0.141578,-0.796709 0.295928,-1.590916 0.449688,-2.385349 0.157461,-0.720204 0.291216,-1.445924 0.495461,-2.154793 0.230937,-0.751401 0.701144,-1.381112 1.138865,-2.021504 0.53254,-0.778912 1.147289,-1.493329 1.77641,-2.194179 0.574802,-0.679968 1.277731,-1.213337 2.016617,-1.69977 1.281028,-0.867024 2.689058,-1.502328 4.051972,-2.219302 0.76591,-0.363662 1.497137,-0.791858 2.248805,-1.182595 0.882028,-0.476403 1.793062,-0.890632 2.701279,-1.313563 0.167651,-0.0791 0.334349,-0.160245 0.502952,-0.237286 0.526814,-0.240724 1.059847,-0.467456 1.56904,-0.745326 0.184825,-0.10086 0.734372,-0.411475 0.545269,-0.318879 -0.351695,0.172209 -0.689173,0.372047 -1.033761,0.558073 1.238207,-0.863553 2.263071,-1.973295 3.222632,-3.127817 0.980374,-1.197875 1.919899,-2.426552 2.792368,-3.705098 0.70386,-1.086578 1.321763,-2.229168 1.914416,-3.379804 0.480968,-0.858996 0.72521,-1.796113 0.897367,-2.75668 0.191574,-0.955746 0.241421,-1.92364 0.226906,-2.895312 0.01288,-0.568319 -0.063,-1.128358 -0.139438,-1.689346 -0.100319,-0.469953 -0.135416,-0.948108 -0.164632,-1.42658 -0.02601,-0.427445 -0.03,-0.855766 -0.04087,-1.283745 -0.0063,-0.221647 -0.0057,-0.443302 -0.0042,-0.665001 0.0011,-0.203253 -0.0011,-0.406509 -0.0011,-0.609762 0.01447,-0.181895 0.0082,-0.332512 -0.07525,-0.493191 -0.06,-0.116641 -0.103344,-0.239178 -0.141396,-0.364289 0,0 1.744795,-0.948917 1.744795,-0.948917 v 0 c 0.02765,0.113329 0.06204,0.223935 0.117512,0.32734 0.111246,0.203411 0.142303,0.34486 0.121856,0.578516 -1.96e-4,0.203899 -0.0024,0.407797 -0.0021,0.611696 7.93e-4,0.223036 -5.3e-4,0.445997 -0.0061,0.668972 -0.0075,0.428747 -0.0037,0.857703 0.01336,1.286198 0.02492,0.473149 0.06842,0.944708 0.173093,1.407864 0.06266,0.575836 0.125651,1.151255 0.105254,1.732018 -2.65e-4,0.982863 -0.04144,1.964949 -0.227983,2.933028 -0.156552,0.980855 -0.388565,1.940925 -0.881994,2.814359 -0.608264,1.160947 -1.244561,2.311863 -1.946852,3.418179 -0.871217,1.285883 -1.812182,2.519873 -2.793706,3.723693 -0.944425,1.164354 -1.961026,2.277869 -3.17567,3.168401 -0.89667,0.539499 -1.775346,1.111568 -2.698898,1.603632 -0.514927,0.274351 -1.051123,0.504327 -1.580454,0.7484 -0.169243,0.07804 -0.337153,0.158927 -0.505732,0.238392 -0.914443,0.426387 -1.826432,0.855853 -2.71449,1.335752 -0.748679,0.398044 -1.487792,0.813647 -2.251195,1.183693 -0.396528,0.204927 -0.797435,0.399798 -1.196152,0.600257 -0.140044,0.07041 -0.550312,0.29957 -0.417692,0.216011 0.26828,-0.169029 1.972768,-1.166346 0.820251,-0.481753 -0.738982,0.471429 -1.45196,0.98216 -2.029114,1.65036 -0.198347,0.221985 -0.408289,0.433496 -0.604811,0.6571 -0.423606,0.481981 -0.809834,0.998885 -1.187958,1.516529 -0.422431,0.624321 -0.880832,1.233188 -1.130522,1.952707 -0.216289,0.707043 -0.376481,1.427628 -0.528929,2.150848 -0.157614,0.783698 -0.300318,1.570164 -0.422253,2.360189 -0.06153,0.448561 -0.08821,0.89849 -0.100709,1.35097 -0.04443,0.800391 -0.131336,1.597303 -0.213206,2.394546 -0.0985,0.980604 -0.144947,1.965838 -0.264822,2.944259 -0.09495,0.682808 -0.176776,1.368266 -0.321402,2.04297 -0.107233,0.641709 -0.239173,1.277747 -0.419794,1.903259 -0.238299,0.783386 -0.44905,1.574297 -0.754877,2.33572 -0.34808,1.02842 -0.605486,2.081697 -0.944171,3.112794 -0.251391,0.822748 -0.542263,1.631278 -0.844156,2.436704 0,0 -1.797081,0.813059 -1.797081,0.813059 z"
       inkscape:connector-curvature="0" />
    <text
       xml:space="preserve"
       style="font-style:normal;font-variant:normal;font-weight:normal;font-stretch:normal;font-size:11.28888893px;line-height:1.25;font-family:sans-serif;-inkscape-font-specification:'sans-serif, Normal';font-variant-ligatures:normal;font-variant-caps:normal;font-variant-numeric:normal;font-feature-settings:normal;text-align:start;letter-spacing:0px;word-spacing:0px;writing-mode:lr-tb;text-anchor:start;fill:#000000;fill-opacity:1;stroke:none;stroke-width:0.26458332"
       x="18.409767"
       y="51.153675"
       id="text3715"><tspan
         sodipodi:role="line"
         id="tspan3713"
         x="18.409767"
         y="51.153675"
         style="font-style:normal;font-variant:normal;font-weight:normal;font-stretch:normal;font-size:11.28888893px;font-family:'Latin Modern Sans';-inkscape-font-specification:'Latin Modern Sans, Normal';font-variant-ligatures:normal;font-variant-caps:normal;font-variant-numeric:normal;font-feature-settings:normal;text-align:start;writing-mode:lr-tb;text-anchor:start;stroke-width:0.26458332"><tspan
   style="font-style:normal;font-variant:normal;font-weight:normal;font-stretch:normal;font-size:11.28888893px;font-family:'Latin Modern Mono';-inkscape-font-specification:'Latin Modern Mono, Normal';font-variant-ligatures:normal;font-variant-caps:normal;font-variant-numeric:normal;font-feature-settings:normal;text-align:start;writing-mode:lr-tb;text-anchor:start"
   id="tspan3743">x</tspan> :</tspan></text>
    <text
       xml:space="preserve"
       style="font-style:normal;font-variant:normal;font-weight:normal;font-stretch:normal;font-size:11.28888893px;line-height:1.25;font-family:sans-serif;-inkscape-font-specification:'sans-serif, Normal';font-variant-ligatures:normal;font-variant-caps:normal;font-variant-numeric:normal;font-feature-settings:normal;text-align:start;letter-spacing:0px;word-spacing:0px;writing-mode:lr-tb;text-anchor:start;fill:#000000;fill-opacity:1;stroke:none;stroke-width:0.26458332"
       x="18.409767"
       y="73.02813"
       id="text3719"><tspan
         sodipodi:role="line"
         id="tspan3717"
         x="18.409767"
         y="73.02813"
         style="font-style:normal;font-variant:normal;font-weight:normal;font-stretch:normal;font-size:11.28888893px;font-family:'Latin Modern Sans';-inkscape-font-specification:'Latin Modern Sans, Normal';font-variant-ligatures:normal;font-variant-caps:normal;font-variant-numeric:normal;font-feature-settings:normal;text-align:start;writing-mode:lr-tb;text-anchor:start;stroke-width:0.26458332"><tspan
   style="font-style:normal;font-variant:normal;font-weight:normal;font-stretch:normal;font-size:11.28888893px;font-family:'Latin Modern Mono';-inkscape-font-specification:'Latin Modern Mono, Normal';font-variant-ligatures:normal;font-variant-caps:normal;font-variant-numeric:normal;font-feature-settings:normal;text-align:start;writing-mode:lr-tb;text-anchor:start"
   id="tspan3745">y</tspan> :</tspan></text>
    <text
       xml:space="preserve"
       style="font-style:normal;font-weight:normal;font-size:10.58333302px;line-height:1.25;font-family:sans-serif;letter-spacing:0px;word-spacing:0px;fill:#000000;fill-opacity:1;stroke:none;stroke-width:0.26458332"
       x="78.042702"
       y="107.77317"
       id="text3731"><tspan
         sodipodi:role="line"
         id="tspan3729"
         x="78.042702"
         y="117.13694"
         style="stroke-width:0.26458332" /></text>
    <g
       id="g4657">
      <circle
         style="fill:#e6e6e6;fill-opacity:1;stroke:none;stroke-width:0.26458332"
         r="7.6540179"
         cy="49.520088"
         cx="47.908482"
         id="path3830" />
      <g
         transform="translate(6.4255952)"
         id="g3788">
        <text
           xml:space="preserve"
           style="font-style:oblique;font-variant:normal;font-weight:normal;font-stretch:normal;font-size:11.28888893px;line-height:1.25;font-family:'Latin Modern Sans';-inkscape-font-specification:'Latin Modern Sans, Oblique';font-variant-ligatures:normal;font-variant-caps:normal;font-variant-numeric:normal;font-feature-settings:normal;text-align:start;letter-spacing:0px;word-spacing:0px;writing-mode:lr-tb;text-anchor:start;fill:#000000;fill-opacity:1;stroke:none;stroke-width:0.26458332"
           x="36.724724"
           y="51.153675"
           id="text3727"><tspan
             sodipodi:role="line"
             id="tspan3725"
             x="36.724724"
             y="51.153675"
             style="font-style:oblique;font-variant:normal;font-weight:normal;font-stretch:normal;font-size:11.28888893px;font-family:'Latin Modern Sans';-inkscape-font-specification:'Latin Modern Sans, Oblique';font-variant-ligatures:normal;font-variant-caps:normal;font-variant-numeric:normal;font-feature-settings:normal;text-align:start;writing-mode:lr-tb;text-anchor:start;stroke-width:0.26458332">x </tspan></text>
        <text
           xml:space="preserve"
           style="font-style:oblique;font-variant:normal;font-weight:normal;font-stretch:normal;font-size:8.46666622px;line-height:1.25;font-family:'Latin Modern Sans';-inkscape-font-specification:'Latin Modern Sans, Oblique';font-variant-ligatures:normal;font-variant-caps:normal;font-variant-numeric:normal;font-feature-settings:normal;text-align:start;letter-spacing:0px;word-spacing:0px;writing-mode:lr-tb;text-anchor:start;fill:#000000;fill-opacity:1;stroke:none;stroke-width:0.26458332"
           x="41.199406"
           y="54.339287"
           id="text3741"><tspan
             sodipodi:role="line"
             id="tspan3739"
             x="41.199406"
             y="54.339287"
             style="font-style:oblique;font-variant:normal;font-weight:normal;font-stretch:normal;font-size:8.46666622px;font-family:'Latin Modern Sans';-inkscape-font-specification:'Latin Modern Sans, Oblique';font-variant-ligatures:normal;font-variant-caps:normal;font-variant-numeric:normal;font-feature-settings:normal;text-align:start;writing-mode:lr-tb;text-anchor:start;stroke-width:0.26458332">0</tspan></text>
      </g>
    </g>
    <flowRoot
       xml:space="preserve"
       id="flowRoot3747"
       style="font-style:normal;font-weight:normal;font-size:40px;line-height:1.25;font-family:sans-serif;letter-spacing:0px;word-spacing:0px;fill:#000000;fill-opacity:1;stroke:none"
       transform="scale(0.26458333)"><flowRegion
         id="flowRegion3749"><rect
           id="rect3751"
           width="91.428574"
           height="152.14285"
           x="41.42857"
           y="157.51968" /></flowRegion><flowPara
         id="flowPara3753" /></flowRoot>    <g
       id="g4665">
      <circle
         id="circle4637"
         cx="71.909966"
         cy="49.520088"
         r="7.6540179"
         style="fill:#ffc8c8;fill-opacity:1;stroke:none;stroke-width:0.26458332" />
      <g
         transform="translate(30.427083)"
         id="g3798">
        <text
           id="text3792"
           y="51.153675"
           x="36.724724"
           style="font-style:oblique;font-variant:normal;font-weight:normal;font-stretch:normal;font-size:11.28888893px;line-height:1.25;font-family:'Latin Modern Sans';-inkscape-font-specification:'Latin Modern Sans, Oblique';font-variant-ligatures:normal;font-variant-caps:normal;font-variant-numeric:normal;font-feature-settings:normal;text-align:start;letter-spacing:0px;word-spacing:0px;writing-mode:lr-tb;text-anchor:start;fill:#000000;fill-opacity:1;stroke:none;stroke-width:0.26458332"
           xml:space="preserve"><tspan
             style="font-style:oblique;font-variant:normal;font-weight:normal;font-stretch:normal;font-size:11.28888893px;font-family:'Latin Modern Sans';-inkscape-font-specification:'Latin Modern Sans, Oblique';font-variant-ligatures:normal;font-variant-caps:normal;font-variant-numeric:normal;font-feature-settings:normal;text-align:start;writing-mode:lr-tb;text-anchor:start;stroke-width:0.26458332"
             y="51.153675"
             x="36.724724"
             id="tspan3790"
             sodipodi:role="line">x </tspan></text>
        <text
           id="text3796"
           y="54.339287"
           x="41.199406"
           style="font-style:oblique;font-variant:normal;font-weight:normal;font-stretch:normal;font-size:8.46666622px;line-height:1.25;font-family:'Latin Modern Sans';-inkscape-font-specification:'Latin Modern Sans, Oblique';font-variant-ligatures:normal;font-variant-caps:normal;font-variant-numeric:normal;font-feature-settings:normal;text-align:start;letter-spacing:0px;word-spacing:0px;writing-mode:lr-tb;text-anchor:start;fill:#000000;fill-opacity:1;stroke:none;stroke-width:0.26458332"
           xml:space="preserve"><tspan
             style="font-style:oblique;font-variant:normal;font-weight:normal;font-stretch:normal;font-size:8.46666622px;font-family:'Latin Modern Sans';-inkscape-font-specification:'Latin Modern Sans, Oblique';font-variant-ligatures:normal;font-variant-caps:normal;font-variant-numeric:normal;font-feature-settings:normal;text-align:start;writing-mode:lr-tb;text-anchor:start;stroke-width:0.26458332"
             y="54.339287"
             x="41.199406"
             id="tspan3794"
             sodipodi:role="line">1</tspan></text>
      </g>
      <rect
         style="opacity:0.93999999;fill:none;fill-opacity:1;stroke:none;stroke-width:0.26458332;stroke-opacity:1"
         id="rect6022"
         width="101.48601"
         height="71.483002"
         x="0.46882597"
         y="20.481096" />
    </g>
    <g
       id="g4681">
      <circle
         style="fill:#e6e6e6;fill-opacity:1;stroke:none;stroke-width:0.26458332"
         r="7.6540179"
         cy="71.442711"
         cx="47.908482"
         id="circle4639" />
      <g
         id="g3818"
         transform="translate(6.8035719,21.733631)">
        <text
           id="text3812"
           y="51.153675"
           x="36.724724"
           style="font-style:oblique;font-variant:normal;font-weight:normal;font-stretch:normal;font-size:11.28888893px;line-height:1.25;font-family:'Latin Modern Sans';-inkscape-font-specification:'Latin Modern Sans, Oblique';font-variant-ligatures:normal;font-variant-caps:normal;font-variant-numeric:normal;font-feature-settings:normal;text-align:start;letter-spacing:0px;word-spacing:0px;writing-mode:lr-tb;text-anchor:start;fill:#000000;fill-opacity:1;stroke:none;stroke-width:0.26458332"
           xml:space="preserve"><tspan
             style="font-style:oblique;font-variant:normal;font-weight:normal;font-stretch:normal;font-size:11.28888893px;font-family:'Latin Modern Sans';-inkscape-font-specification:'Latin Modern Sans, Oblique';font-variant-ligatures:normal;font-variant-caps:normal;font-variant-numeric:normal;font-feature-settings:normal;text-align:start;writing-mode:lr-tb;text-anchor:start;stroke-width:0.26458332"
             y="51.153675"
             x="36.724724"
             id="tspan3810"
             sodipodi:role="line">y </tspan></text>
        <text
           id="text3816"
           y="54.339287"
           x="40.065475"
           style="font-style:oblique;font-variant:normal;font-weight:normal;font-stretch:normal;font-size:8.46666622px;line-height:1.25;font-family:'Latin Modern Sans';-inkscape-font-specification:'Latin Modern Sans, Oblique';font-variant-ligatures:normal;font-variant-caps:normal;font-variant-numeric:normal;font-feature-settings:normal;text-align:start;letter-spacing:0px;word-spacing:0px;writing-mode:lr-tb;text-anchor:start;fill:#000000;fill-opacity:1;stroke:none;stroke-width:0.26458332"
           xml:space="preserve"><tspan
             style="font-style:oblique;font-variant:normal;font-weight:normal;font-stretch:normal;font-size:8.46666622px;font-family:'Latin Modern Sans';-inkscape-font-specification:'Latin Modern Sans, Oblique';font-variant-ligatures:normal;font-variant-caps:normal;font-variant-numeric:normal;font-feature-settings:normal;text-align:start;writing-mode:lr-tb;text-anchor:start;stroke-width:0.26458332"
             y="54.339287"
             x="40.065475"
             id="tspan3814"
             sodipodi:role="line">0</tspan></text>
      </g>
    </g>
    <text
       id="text4711"
       y="30.315586"
       x="2.2543371"
       style="font-style:normal;font-variant:normal;font-weight:normal;font-stretch:normal;font-size:11.28888893px;line-height:1.25;font-family:'Latin Modern Sans';-inkscape-font-specification:'Latin Modern Sans, Normal';font-variant-ligatures:normal;font-variant-caps:normal;font-variant-numeric:normal;font-feature-settings:normal;text-align:start;letter-spacing:0px;word-spacing:0px;writing-mode:lr-tb;text-anchor:start;fill:#ff7f00;fill-opacity:1;stroke:none;stroke-width:0.26458332"
       xml:space="preserve"><tspan
         style="font-style:normal;font-variant:normal;font-weight:normal;font-stretch:normal;font-size:11.28888893px;font-family:'Latin Modern Sans';-inkscape-font-specification:'Latin Modern Sans, Normal';font-variant-ligatures:normal;font-variant-caps:normal;font-variant-numeric:normal;font-feature-settings:normal;text-align:start;writing-mode:lr-tb;text-anchor:start;fill:#ff7f00;fill-opacity:1;stroke-width:0.26458332"
         y="30.315586"
         x="2.2543371"
         id="tspan4709"
         sodipodi:role="line">thread B</tspan></text>
    <text
       id="text4715"
       y="30.315586"
       x="58.942204"
       style="font-style:normal;font-variant:normal;font-weight:normal;font-stretch:normal;font-size:11.28888893px;line-height:1.25;font-family:'Latin Modern Sans';-inkscape-font-specification:'Latin Modern Sans, Normal';font-variant-ligatures:normal;font-variant-caps:normal;font-variant-numeric:normal;font-feature-settings:normal;text-align:start;letter-spacing:0px;word-spacing:0px;writing-mode:lr-tb;text-anchor:start;fill:#7f007f;fill-opacity:1;stroke:none;stroke-width:0.26458332"
       xml:space="preserve"><tspan
         style="font-style:normal;font-variant:normal;font-weight:normal;font-stretch:normal;font-size:11.28888893px;font-family:'Latin Modern Sans';-inkscape-font-specification:'Latin Modern Sans, Normal';font-variant-ligatures:normal;font-variant-caps:normal;font-variant-numeric:normal;font-feature-settings:normal;text-align:start;writing-mode:lr-tb;text-anchor:start;fill:#7f007f;fill-opacity:1;stroke-width:0.26458332"
         y="30.315586"
         x="58.942204"
         id="tspan4713"
         sodipodi:role="line">thread A</tspan></text>
  </g>
</svg>
